<?xml version="1.0" encoding="utf-8"?>
<!-- Generator: Adobe Illustrator 16.0.3, SVG Export Plug-In . SVG Version: 6.00 Build 0)  -->
<!DOCTYPE svg PUBLIC "-//W3C//DTD SVG 1.1//EN" "http://www.w3.org/Graphics/SVG/1.1/DTD/svg11.dtd">
<svg version="1.1" id="Layer_1" xmlns="http://www.w3.org/2000/svg" xmlns:xlink="http://www.w3.org/1999/xlink" x="0px" y="0px"
	 width="26px" height="32px" viewBox="0 0 26 32" enable-background="new 0 0 26 32" xml:space="preserve">
<title>ai-location</title>
<path d="M13.141,3.56c-4.416,0-7.997,3.581-7.997,7.997c0,2.389,1.05,4.532,2.71,5.997l5.286,8.458l5.286-8.458
	c1.66-1.465,2.711-3.608,2.711-5.997C21.138,7.141,17.558,3.56,13.141,3.56z M13.141,7.25c2.378,0,4.306,1.929,4.306,4.306
	s-1.928,4.306-4.306,4.306c-2.377,0-4.306-1.928-4.306-4.306S10.763,7.25,13.141,7.25z M11.161,24.004
	c-2.077,0.31-3.556,1.091-3.556,2.008c0,1.19,2.479,2.153,5.536,2.153c3.059,0,5.536-0.963,5.536-2.153
	c0-0.917-1.479-1.698-3.556-2.008l-1.462,2.334c-0.222,0.348-0.817,0.348-1.038,0L11.161,24.004z"/>
</svg>
